module github.com/infradrift/infradriftd

go 1.12

require (
	github.com/labstack/echo v3.3.10+incompatible
	github.com/labstack/gommon v0.2.8 // indirect
	github.com/mattn/go-colorable v0.1.1 // indirect
	github.com/mattn/go-isatty v0.0.7 // indirect
	github.com/smartystreets/goconvey v0.0.0-20190330032615-68dc04aab96a
	github.com/stretchr/testify v1.3.0 // indirect
	github.com/valyala/fasttemplate v1.0.1 // indirect
	golang.org/x/crypto v0.0.0-20190513172903-22d7a77e9e5f // indirect
)
